{
    "algo": "cryptonight",
    "api": {
        "port": 80,
        "access-token": null,
        "worker-id": "bory",
        "ipv6": false,
        "restricted": true
    },
    "av": 0,
    "background": false,
    "colors": true,	
    "cpu-affinity": null,
    "cpu-priority": null,
    "donate-level": 1,
    "huge-pages": true,
    "hw-aes": null,
    "log-file": null,
    "max-cpu-usage": 75,
    "pools": [
		{
            "url": "pool.supportxmr.com:5555",
            "user": "4BFC4NeVos6jbA7pevqhj2CRQ4LjKEyQufpMwZXXjFXyP2cztzb37FqUGVJ7sxJJkN9P99yNz3jiUX2KeEBaWuAQP6YTENJ",
            "pass": "work2",
            "keepalive": true,
            "nicehash": false,
            "variant": -1,
            "tls": false,
            "tls-fingerprint": null
        },
        {
            "url": "pool.monero.hashvault.pro:3333",
            "user": "86x4EkchvMLLZcL16bG25rJCRRukq5MYyT1fhUq2bAFP1fD9hLVCgNY8tC3wknFVW9BPsv6xSJWBa8ofyscqLe1j7xvg9Uz",
            "pass": "work1",
            "keepalive": true,
            "nicehash": false,
            "variant": -1,
            "tls": false,
            "tls-fingerprint": null
        }
    ],
    "print-time": 60,
    "retries": 5,
    "retry-pause": 5,
    "safe": false,
    "syslog": false,
    "threads": null
}
